
===================================================================================================================================================
HTTP/Load Distribution:
Topic / Item                        Count         Average       Min val       Max val       Rate (ms)     Percent       Burst rate    Burst start  
---------------------------------------------------------------------------------------------------------------------------------------------------
HTTP Requests by Server             436550                                                  0.0007        100%          0.4200        263005.458   
 HTTP Requests by Server Address    436550                                                  0.0007        100.00%       0.4200        263005.458   
  239.255.255.250                   432929                                                  0.0007        99.17%        0.4200        263005.458   
   239.255.255.250:1900             432929                                                  0.0007        100.00%       0.4200        263005.458   
  255.255.255.255                   536                                                     0.0000        0.12%         0.0800        156.857      
   239.255.255.250:1900             536                                                     0.0000        100.00%       0.0800        156.857      
  192.168.1.101                     381                                                     0.0000        0.09%         0.0200        5479.642     
   192.168.1.101                    378                                                     0.0000        99.21%        0.0200        5479.642     
   192.168.1.101:80                 3                                                       0.0000        0.79%         0.0100        435.883      
  13.35.242.75                      195                                                     0.0000        0.04%         0.0100        708.583      
   d3p8zr0ffa9t17.cloudfront.net    195                                                     0.0000        100.00%       0.0100        708.583      
  13.35.242.44                      180                                                     0.0000        0.04%         0.0100        107.968      
   d3p8zr0ffa9t17.cloudfront.net    180                                                     0.0000        100.00%       0.0100        107.968      
  13.35.242.134                     180                                                     0.0000        0.04%         0.0100        1309.175     
   d3p8zr0ffa9t17.cloudfront.net    180                                                     0.0000        100.00%       0.0100        1309.175     
  13.35.242.17                      177                                                     0.0000        0.04%         0.0100        12716.838    
   d3p8zr0ffa9t17.cloudfront.net    177                                                     0.0000        100.00%       0.0100        12716.838    
  99.84.13.9                        173                                                     0.0000        0.04%         0.0100        4010.587     
   d3p8zr0ffa9t17.cloudfront.net    173                                                     0.0000        100.00%       0.0100        4010.587     
  99.84.13.143                      172                                                     0.0000        0.04%         0.0100        2210.067     
   d3p8zr0ffa9t17.cloudfront.net    172                                                     0.0000        100.00%       0.0100        2210.067     
  143.204.178.208                   167                                                     0.0000        0.04%         0.0100        408.211      
   d3p8zr0ffa9t17.cloudfront.net    167                                                     0.0000        100.00%       0.0100        408.211      
  143.204.178.173                   165                                                     0.0000        0.04%         0.0100        13317.450    
   d3p8zr0ffa9t17.cloudfront.net    165                                                     0.0000        100.00%       0.0100        13317.450    
  99.84.13.30                       156                                                     0.0000        0.04%         0.0100        1008.876     
   d3p8zr0ffa9t17.cloudfront.net    156                                                     0.0000        100.00%       0.0100        1008.876     
  143.204.178.14                    152                                                     0.0000        0.03%         0.0100        6712.000     
   d3p8zr0ffa9t17.cloudfront.net    152                                                     0.0000        100.00%       0.0100        6712.000     
  143.204.178.215                   146                                                     0.0000        0.03%         0.0100        3710.328     
   d3p8zr0ffa9t17.cloudfront.net    146                                                     0.0000        100.00%       0.0100        3710.328     
  99.84.13.196                      144                                                     0.0000        0.03%         0.0100        11215.317    
   d3p8zr0ffa9t17.cloudfront.net    144                                                     0.0000        100.00%       0.0100        11215.317    
  34.90.171.169                     120                                                     0.0000        0.03%         0.0200        7542.236     
   diagnostics.meethue.com          113                                                     0.0000        94.17%        0.0200        7542.236     
   diagnostics.meethue.com:80       7                                                       0.0000        5.83%         0.0100        31525.631    
  52.213.38.44                      97                                                      0.0000        0.02%         0.0100        1377.406     
   dcp.dc1.philips.com:80           97                                                      0.0000        100.00%       0.0100        1377.406     
  54.229.29.198                     94                                                      0.0000        0.02%         0.0100        1377.472     
   dcp.dc1.philips.com:80           94                                                      0.0000        100.00%       0.0100        1377.472     
  52.18.228.143                     78                                                      0.0000        0.02%         0.0100        332581.462   
   dcp.dc1.philips.com:80           78                                                      0.0000        100.00%       0.0100        332581.462   
  52.215.23.207                     74                                                      0.0000        0.02%         0.0100        343381.764   
   dcp.dc1.philips.com:80           74                                                      0.0000        100.00%       0.0100        343381.764   
  ff02::c                           47                                                      0.0000        0.01%         0.1200        603687.679   
   [FF02::C]:1900                   47                                                      0.0000        100.00%       0.1200        603687.679   
  63.35.119.188                     24                                                      0.0000        0.01%         0.0300        353155.949   
   www.ecdinterface.philips.com:80  24                                                      0.0000        100.00%       0.0300        353155.949   
  13.107.4.50                       23                                                      0.0000        0.01%         0.0300        603704.025   
   download.windowsupdate.com       23                                                      0.0000        100.00%       0.0300        603704.025   
  52.50.121.114                     13                                                      0.0000        0.00%         0.0300        450522.142   
   www.ecdinterface.philips.com:80  13                                                      0.0000        100.00%       0.0300        450522.142   
  54.171.226.211                    12                                                      0.0000        0.00%         0.0300        93963.784    
   www.ecdinterface.philips.com:80  12                                                      0.0000        100.00%       0.0300        93963.784    
  192.168.1.105                     12                                                      0.0000        0.00%         0.0200        603689.457   
   192.168.1.105:60000              12                                                      0.0000        100.00%       0.0200        603689.457   
  34.238.147.207                    10                                                      0.0000        0.00%         0.0100        189902.968   
   fw.ring.com                      10                                                      0.0000        100.00%       0.0100        189902.968   
  35.153.225.60                     8                                                       0.0000        0.00%         0.0100        233388.786   
   fw.ring.com                      8                                                       0.0000        100.00%       0.0100        233388.786   
  34.205.79.196                     7                                                       0.0000        0.00%         0.0100        35223.841    
   fw.ring.com                      7                                                       0.0000        100.00%       0.0100        35223.841    
  54.175.191.182                    6                                                       0.0000        0.00%         0.0100        283531.900   
   fw.ring.com                      6                                                       0.0000        100.00%       0.0100        283531.900   
  100.24.108.146                    6                                                       0.0000        0.00%         0.0100        439.630      
   fw.ring.com                      6                                                       0.0000        100.00%       0.0100        439.630      
  52.202.74.26                      5                                                       0.0000        0.00%         0.0100        60617.716    
   fw.ring.com                      5                                                       0.0000        100.00%       0.0100        60617.716    
  3.93.29.84                        5                                                       0.0000        0.00%         0.0100        103936.058   
   fw.ring.com                      5                                                       0.0000        100.00%       0.0100        103936.058   
  3.224.97.29                       4                                                       0.0000        0.00%         0.0100        463778.253   
   fw.ring.com                      4                                                       0.0000        100.00%       0.0100        463778.253   
  3.216.182.45                      4                                                       0.0000        0.00%         0.0100        550346.715   
   fw.ring.com                      4                                                       0.0000        100.00%       0.0100        550346.715   
  93.184.220.29                     3                                                       0.0000        0.00%         0.0100        603693.729   
   ocsp.digicert.com                3                                                       0.0000        100.00%       0.0100        603693.729   
  143.204.181.89                    3                                                       0.0000        0.00%         0.0100        437010.592   
   prod.amazoncrl.com               3                                                       0.0000        100.00%       0.0100        437010.592   
  99.84.8.76                        2                                                       0.0000        0.00%         0.0100        221030.002   
   d3h5bk8iotgjvw.cloudfront.net    2                                                       0.0000        100.00%       0.0100        221030.002   
  99.84.8.64                        2                                                       0.0000        0.00%         0.0100        264207.925   
   d3h5bk8iotgjvw.cloudfront.net    2                                                       0.0000        100.00%       0.0100        264207.925   
  99.84.8.119                       2                                                       0.0000        0.00%         0.0100        134610.891   
   prod.amazoncrl.com               2                                                       0.0000        100.00%       0.0100        134610.891   
  99.84.8.114                       2                                                       0.0000        0.00%         0.0100        5009.779     
   d3h5bk8iotgjvw.cloudfront.net    2                                                       0.0000        100.00%       0.0100        5009.779     
  99.84.8.11                        2                                                       0.0000        0.00%         0.0100        264207.845   
   prod.amazoncrl.com               2                                                       0.0000        100.00%       0.0100        264207.845   
  52.54.15.143                      2                                                       0.0000        0.00%         0.0100        410434.940   
   fw.ring.com                      2                                                       0.0000        100.00%       0.0100        410434.940   
  52.167.18.95                      2                                                       0.0000        0.00%         0.0100        603715.157   
   dmd.metaservices.microsoft.com   2                                                       0.0000        100.00%       0.0100        603715.157   
  3.212.73.21                       2                                                       0.0000        0.00%         0.0100        496836.069   
   fw.ring.com                      2                                                       0.0000        100.00%       0.0100        496836.069   
  216.58.210.35                     2                                                       0.0000        0.00%         0.0100        155.958      
   connectivitycheck.gstatic.com    2                                                       0.0000        100.00%       0.0100        155.958      
  143.204.181.81                    2                                                       0.0000        0.00%         0.0100        5009.728     
   prod.amazoncrl.com               2                                                       0.0000        100.00%       0.0100        5009.728     
  143.204.181.76                    2                                                       0.0000        0.00%         0.0100        177808.775   
   d3h5bk8iotgjvw.cloudfront.net    2                                                       0.0000        100.00%       0.0100        177808.775   
  143.204.181.23                    2                                                       0.0000        0.00%         0.0100        350610.747   
   d3h5bk8iotgjvw.cloudfront.net    2                                                       0.0000        100.00%       0.0100        350610.747   
  13.35.198.114                     2                                                       0.0000        0.00%         0.0100        221029.959   
   prod.amazoncrl.com               2                                                       0.0000        100.00%       0.0100        221029.959   
  104.82.137.153                    2                                                       0.0000        0.00%         0.0100        603715.050   
   go.microsoft.com                 2                                                       0.0000        100.00%       0.0100        603715.050   
  62.24.252.26                      1                                                       0.0000        0.00%         0.0100        603696.393   
   adl.windows.com                  1                                                       0.0000        100.00%       0.0100        603696.393   
  216.58.204.78                     1                                                       0.0000        0.00%         0.0100        397350.583   
   clients3.google.com              1                                                       0.0000        100.00%       0.0100        397350.583   
  205.185.216.10                    1                                                       0.0000        0.00%         0.0100        603684.841   
   ctldl.windowsupdate.com          1                                                       0.0000        100.00%       0.0100        603684.841   
  143.204.181.41                    1                                                       0.0000        0.00%         0.0100        134610.939   
   d3h5bk8iotgjvw.cloudfront.net    1                                                       0.0000        100.00%       0.0100        134610.939   
  143.204.181.32                    1                                                       0.0000        0.00%         0.0100        91408.679    
   prod.amazoncrl.com               1                                                       0.0000        100.00%       0.0100        91408.679    
  13.35.242.120                     1                                                       0.0000        0.00%         0.0100        353289.213   
   fds.dc1.philips.com:80           1                                                       0.0000        100.00%       0.0100        353289.213   
  13.35.198.76                      1                                                       0.0000        0.00%         0.0100        437010.642   
   d3h5bk8iotgjvw.cloudfront.net    1                                                       0.0000        100.00%       0.0100        437010.642   
  13.35.198.42                      1                                                       0.0000        0.00%         0.0100        48207.093    
   d3h5bk8iotgjvw.cloudfront.net    1                                                       0.0000        100.00%       0.0100        48207.093    
  13.35.198.11                      1                                                       0.0000        0.00%         0.0100        48207.049    
   prod.amazoncrl.com               1                                                       0.0000        100.00%       0.0100        48207.049    
  13.35.198.105                     1                                                       0.0000        0.00%         0.0100        393807.266   
   prod.amazoncrl.com               1                                                       0.0000        100.00%       0.0100        393807.266   
  13.35.198.104                     1                                                       0.0000        0.00%         0.0100        393807.308   
   d3h5bk8iotgjvw.cloudfront.net    1                                                       0.0000        100.00%       0.0100        393807.308   
  13.227.209.71                     1                                                       0.0000        0.00%         0.0100        568091.700   
   d3p8zr0ffa9t17.cloudfront.net    1                                                       0.0000        100.00%       0.0100        568091.700   
  13.227.209.151                    1                                                       0.0000        0.00%         0.0100        567787.631   
   d3p8zr0ffa9t17.cloudfront.net    1                                                       0.0000        100.00%       0.0100        567787.631   
  13.224.89.169                     1                                                       0.0000        0.00%         0.0100        567482.287   
   d3p8zr0ffa9t17.cloudfront.net    1                                                       0.0000        100.00%       0.0100        567482.287   
 HTTP Requests by HTTP Host         436550                                                  0.0007        100.00%       0.4200        263005.458   
  239.255.255.250:1900              433465                                                  0.0007        99.29%        0.4200        263005.458   
   239.255.255.250                  432929                                                  0.0007        99.88%        0.4200        263005.458   
   255.255.255.255                  536                                                     0.0000        0.12%         0.0800        156.857      
  d3p8zr0ffa9t17.cloudfront.net     2010                                                    0.0000        0.46%         0.0100        107.968      
   13.35.242.75                     195                                                     0.0000        9.70%         0.0100        708.583      
   13.35.242.44                     180                                                     0.0000        8.96%         0.0100        107.968      
   13.35.242.134                    180                                                     0.0000        8.96%         0.0100        1309.175     
   13.35.242.17                     177                                                     0.0000        8.81%         0.0100        12716.838    
   99.84.13.9                       173                                                     0.0000        8.61%         0.0100        4010.587     
   99.84.13.143                     172                                                     0.0000        8.56%         0.0100        2210.067     
   143.204.178.208                  167                                                     0.0000        8.31%         0.0100        408.211      
   143.204.178.173                  165                                                     0.0000        8.21%         0.0100        13317.450    
   99.84.13.30                      156                                                     0.0000        7.76%         0.0100        1008.876     
   143.204.178.14                   152                                                     0.0000        7.56%         0.0100        6712.000     
   143.204.178.215                  146                                                     0.0000        7.26%         0.0100        3710.328     
   99.84.13.196                     144                                                     0.0000        7.16%         0.0100        11215.317    
   13.227.209.71                    1                                                       0.0000        0.05%         0.0100        568091.700   
   13.227.209.151                   1                                                       0.0000        0.05%         0.0100        567787.631   
   13.224.89.169                    1                                                       0.0000        0.05%         0.0100        567482.287   
  192.168.1.101                     378                                                     0.0000        0.09%         0.0200        5479.642     
   192.168.1.101                    378                                                     0.0000        100.00%       0.0200        5479.642     
  dcp.dc1.philips.com:80            343                                                     0.0000        0.08%         0.0200        1377.406     
   52.213.38.44                     97                                                      0.0000        28.28%        0.0100        1377.406     
   54.229.29.198                    94                                                      0.0000        27.41%        0.0100        1377.472     
   52.18.228.143                    78                                                      0.0000        22.74%        0.0100        332581.462   
   52.215.23.207                    74                                                      0.0000        21.57%        0.0100        343381.764   
  diagnostics.meethue.com           113                                                     0.0000        0.03%         0.0200        7542.236     
   34.90.171.169                    113                                                     0.0000        100.00%       0.0200        7542.236     
  fw.ring.com                       59                                                      0.0000        0.01%         0.0100        439.630      
   34.238.147.207                   10                                                      0.0000        16.95%        0.0100        189902.968   
   35.153.225.60                    8                                                       0.0000        13.56%        0.0100        233388.786   
   34.205.79.196                    7                                                       0.0000        11.86%        0.0100        35223.841    
   54.175.191.182                   6                                                       0.0000        10.17%        0.0100        283531.900   
   100.24.108.146                   6                                                       0.0000        10.17%        0.0100        439.630      
   52.202.74.26                     5                                                       0.0000        8.47%         0.0100        60617.716    
   3.93.29.84                       5                                                       0.0000        8.47%         0.0100        103936.058   
   3.224.97.29                      4                                                       0.0000        6.78%         0.0100        463778.253   
   3.216.182.45                     4                                                       0.0000        6.78%         0.0100        550346.715   
   52.54.15.143                     2                                                       0.0000        3.39%         0.0100        410434.940   
   3.212.73.21                      2                                                       0.0000        3.39%         0.0100        496836.069   
  www.ecdinterface.philips.com:80   49                                                      0.0000        0.01%         0.0300        7566.363     
   63.35.119.188                    24                                                      0.0000        48.98%        0.0300        353155.949   
   52.50.121.114                    13                                                      0.0000        26.53%        0.0300        450522.142   
   54.171.226.211                   12                                                      0.0000        24.49%        0.0300        93963.784    
  [FF02::C]:1900                    47                                                      0.0000        0.01%         0.1200        603687.679   
   ff02::c                          47                                                      0.0000        100.00%       0.1200        603687.679   
  download.windowsupdate.com        23                                                      0.0000        0.01%         0.0300        603704.025   
   13.107.4.50                      23                                                      0.0000        100.00%       0.0300        603704.025   
  prod.amazoncrl.com                14                                                      0.0000        0.00%         0.0100        5009.728     
   143.204.181.89                   3                                                       0.0000        21.43%        0.0100        437010.592   
   99.84.8.119                      2                                                       0.0000        14.29%        0.0100        134610.891   
   99.84.8.11                       2                                                       0.0000        14.29%        0.0100        264207.845   
   143.204.181.81                   2                                                       0.0000        14.29%        0.0100        5009.728     
   13.35.198.114                    2                                                       0.0000        14.29%        0.0100        221029.959   
   143.204.181.32                   1                                                       0.0000        7.14%         0.0100        91408.679    
   13.35.198.11                     1                                                       0.0000        7.14%         0.0100        48207.049    
   13.35.198.105                    1                                                       0.0000        7.14%         0.0100        393807.266   
  d3h5bk8iotgjvw.cloudfront.net     14                                                      0.0000        0.00%         0.0100        5009.779     
   99.84.8.76                       2                                                       0.0000        14.29%        0.0100        221030.002   
   99.84.8.64                       2                                                       0.0000        14.29%        0.0100        264207.925   
   99.84.8.114                      2                                                       0.0000        14.29%        0.0100        5009.779     
   143.204.181.76                   2                                                       0.0000        14.29%        0.0100        177808.775   
   143.204.181.23                   2                                                       0.0000        14.29%        0.0100        350610.747   
   143.204.181.41                   1                                                       0.0000        7.14%         0.0100        134610.939   
   13.35.198.76                     1                                                       0.0000        7.14%         0.0100        437010.642   
   13.35.198.42                     1                                                       0.0000        7.14%         0.0100        48207.093    
   13.35.198.104                    1                                                       0.0000        7.14%         0.0100        393807.308   
  192.168.1.105:60000               12                                                      0.0000        0.00%         0.0200        603689.457   
   192.168.1.105                    12                                                      0.0000        100.00%       0.0200        603689.457   
  diagnostics.meethue.com:80        7                                                       0.0000        0.00%         0.0100        31525.631    
   34.90.171.169                    7                                                       0.0000        100.00%       0.0100        31525.631    
  ocsp.digicert.com                 3                                                       0.0000        0.00%         0.0100        603693.729   
   93.184.220.29                    3                                                       0.0000        100.00%       0.0100        603693.729   
  192.168.1.101:80                  3                                                       0.0000        0.00%         0.0100        435.883      
   192.168.1.101                    3                                                       0.0000        100.00%       0.0100        435.883      
  go.microsoft.com                  2                                                       0.0000        0.00%         0.0100        603715.050   
   104.82.137.153                   2                                                       0.0000        100.00%       0.0100        603715.050   
  dmd.metaservices.microsoft.com    2                                                       0.0000        0.00%         0.0100        603715.157   
   52.167.18.95                     2                                                       0.0000        100.00%       0.0100        603715.157   
  connectivitycheck.gstatic.com     2                                                       0.0000        0.00%         0.0100        155.958      
   216.58.210.35                    2                                                       0.0000        100.00%       0.0100        155.958      
  fds.dc1.philips.com:80            1                                                       0.0000        0.00%         0.0100        353289.213   
   13.35.242.120                    1                                                       0.0000        100.00%       0.0100        353289.213   
  ctldl.windowsupdate.com           1                                                       0.0000        0.00%         0.0100        603684.841   
   205.185.216.10                   1                                                       0.0000        100.00%       0.0100        603684.841   
  clients3.google.com               1                                                       0.0000        0.00%         0.0100        397350.583   
   216.58.204.78                    1                                                       0.0000        100.00%       0.0100        397350.583   
  adl.windows.com                   1                                                       0.0000        0.00%         0.0100        603696.393   
   62.24.252.26                     1                                                       0.0000        100.00%       0.0100        603696.393   
HTTP Responses by Server Address    7705                                                    0.0000        100%          0.0800        208293.010   
 192.168.1.101                      5417                                                    0.0000        70.30%        0.0800        208293.010   
  OK                                5417                                                    0.0000        100.00%       0.0800        208293.010   
 13.35.242.75                       195                                                     0.0000        2.53%         0.0100        708.593      
  OK                                195                                                     0.0000        100.00%       0.0100        708.593      
 13.35.242.44                       180                                                     0.0000        2.34%         0.0100        107.978      
  OK                                180                                                     0.0000        100.00%       0.0100        107.978      
 13.35.242.134                      180                                                     0.0000        2.34%         0.0100        1309.187     
  OK                                180                                                     0.0000        100.00%       0.0100        1309.187     
 13.35.242.17                       177                                                     0.0000        2.30%         0.0100        12716.848    
  OK                                177                                                     0.0000        100.00%       0.0100        12716.848    
 99.84.13.9                         173                                                     0.0000        2.25%         0.0100        4010.598     
  OK                                173                                                     0.0000        100.00%       0.0100        4010.598     
 99.84.13.143                       172                                                     0.0000        2.23%         0.0100        2210.077     
  OK                                172                                                     0.0000        100.00%       0.0100        2210.077     
 143.204.178.208                    167                                                     0.0000        2.17%         0.0100        408.291      
  OK                                167                                                     0.0000        100.00%       0.0100        408.291      
 143.204.178.173                    165                                                     0.0000        2.14%         0.0100        13317.461    
  OK                                165                                                     0.0000        100.00%       0.0100        13317.461    
 99.84.13.30                        156                                                     0.0000        2.02%         0.0100        1008.886     
  OK                                156                                                     0.0000        100.00%       0.0100        1008.886     
 143.204.178.14                     152                                                     0.0000        1.97%         0.0100        6712.010     
  OK                                152                                                     0.0000        100.00%       0.0100        6712.010     
 143.204.178.215                    146                                                     0.0000        1.89%         0.0100        3710.338     
  OK                                146                                                     0.0000        100.00%       0.0100        3710.338     
 99.84.13.196                       144                                                     0.0000        1.87%         0.0100        11215.327    
  OK                                144                                                     0.0000        100.00%       0.0100        11215.327    
 34.90.171.169                      120                                                     0.0000        1.56%         0.0200        7542.206     
  OK                                120                                                     0.0000        100.00%       0.0200        7542.206     
 13.107.4.50                        23                                                      0.0000        0.30%         0.0200        603704.042   
  OK                                23                                                      0.0000        100.00%       0.0200        603704.042   
 192.168.1.105                      12                                                      0.0000        0.16%         0.0200        603689.483   
  OK                                12                                                      0.0000        100.00%       0.0200        603689.483   
 34.238.147.207                     10                                                      0.0000        0.13%         0.0100        189901.550   
  OK                                10                                                      0.0000        100.00%       0.0100        189901.550   
 63.35.119.188                      9                                                       0.0000        0.12%         0.0300        353155.970   
  OK                                6                                                       0.0000        66.67%        0.0200        266758.722   
  KO                                3                                                       0.0000        33.33%        0.0100        266758.616   
 54.171.226.211                     9                                                       0.0000        0.12%         0.0300        7566.496     
  OK                                6                                                       0.0000        66.67%        0.0200        7566.551     
  KO                                3                                                       0.0000        33.33%        0.0100        7566.496     
 35.153.225.60                      8                                                       0.0000        0.10%         0.0100        233388.522   
  OK                                8                                                       0.0000        100.00%       0.0100        233388.522   
 52.50.121.114                      7                                                       0.0000        0.09%         0.0300        450522.163   
  OK                                5                                                       0.0000        71.43%        0.0200        450522.216   
  KO                                2                                                       0.0000        28.57%        0.0100        450522.163   
 34.205.79.196                      7                                                       0.0000        0.09%         0.0100        35223.671    
  OK                                7                                                       0.0000        100.00%       0.0100        35223.671    
 54.175.191.182                     6                                                       0.0000        0.08%         0.0100        283531.764   
  OK                                6                                                       0.0000        100.00%       0.0100        283531.764   
 100.24.108.146                     6                                                       0.0000        0.08%         0.0100        439.494      
  OK                                6                                                       0.0000        100.00%       0.0100        439.494      
 52.202.74.26                       5                                                       0.0000        0.06%         0.0100        60617.610    
  OK                                5                                                       0.0000        100.00%       0.0100        60617.610    
 3.93.29.84                         5                                                       0.0000        0.06%         0.0100        103935.925   
  OK                                5                                                       0.0000        100.00%       0.0100        103935.925   
 93.184.220.29                      4                                                       0.0000        0.05%         0.0100        603693.740   
  OK                                4                                                       0.0000        100.00%       0.0100        603693.740   
 3.224.97.29                        4                                                       0.0000        0.05%         0.0100        463778.125   
  OK                                4                                                       0.0000        100.00%       0.0100        463778.125   
 3.216.182.45                       4                                                       0.0000        0.05%         0.0100        550346.476   
  OK                                4                                                       0.0000        100.00%       0.0100        550346.476   
 143.204.181.89                     3                                                       0.0000        0.04%         0.0100        437010.602   
  OK                                3                                                       0.0000        100.00%       0.0100        437010.602   
 99.84.8.76                         2                                                       0.0000        0.03%         0.0100        221030.012   
  OK                                2                                                       0.0000        100.00%       0.0100        221030.012   
 99.84.8.64                         2                                                       0.0000        0.03%         0.0100        264207.935   
  OK                                2                                                       0.0000        100.00%       0.0100        264207.935   
 99.84.8.119                        2                                                       0.0000        0.03%         0.0100        134610.900   
  OK                                2                                                       0.0000        100.00%       0.0100        134610.900   
 99.84.8.114                        2                                                       0.0000        0.03%         0.0100        5009.789     
  OK                                2                                                       0.0000        100.00%       0.0100        5009.789     
 99.84.8.11                         2                                                       0.0000        0.03%         0.0100        264207.855   
  OK                                2                                                       0.0000        100.00%       0.0100        264207.855   
 52.54.15.143                       2                                                       0.0000        0.03%         0.0100        410434.690   
  OK                                2                                                       0.0000        100.00%       0.0100        410434.690   
 52.167.18.95                       2                                                       0.0000        0.03%         0.0100        603715.652   
  OK                                2                                                       0.0000        100.00%       0.0100        603715.652   
 3.212.73.21                        2                                                       0.0000        0.03%         0.0100        496835.968   
  OK                                2                                                       0.0000        100.00%       0.0100        496835.968   
 143.204.181.81                     2                                                       0.0000        0.03%         0.0100        5009.739     
  OK                                2                                                       0.0000        100.00%       0.0100        5009.739     
 143.204.181.76                     2                                                       0.0000        0.03%         0.0100        177808.785   
  OK                                2                                                       0.0000        100.00%       0.0100        177808.785   
 143.204.181.23                     2                                                       0.0000        0.03%         0.0100        350610.757   
  OK                                2                                                       0.0000        100.00%       0.0100        350610.757   
 13.35.198.114                      2                                                       0.0000        0.03%         0.0100        221029.969   
  OK                                2                                                       0.0000        100.00%       0.0100        221029.969   
 52.18.228.143                      1                                                       0.0000        0.01%         0.0100        565718.498   
  KO                                1                                                       0.0000        100.00%       0.0100        565718.498   
 216.58.210.35                      1                                                       0.0000        0.01%         0.0100        221.590      
  OK                                1                                                       0.0000        100.00%       0.0100        221.590      
 205.185.216.10                     1                                                       0.0000        0.01%         0.0100        603684.851   
  OK                                1                                                       0.0000        100.00%       0.0100        603684.851   
 143.204.181.41                     1                                                       0.0000        0.01%         0.0100        134610.949   
  OK                                1                                                       0.0000        100.00%       0.0100        134610.949   
 143.204.181.32                     1                                                       0.0000        0.01%         0.0100        91408.688    
  OK                                1                                                       0.0000        100.00%       0.0100        91408.688    
 13.35.242.120                      1                                                       0.0000        0.01%         0.0100        353295.437   
  OK                                1                                                       0.0000        100.00%       0.0100        353295.437   
 13.35.198.76                       1                                                       0.0000        0.01%         0.0100        437010.652   
  OK                                1                                                       0.0000        100.00%       0.0100        437010.652   
 13.35.198.42                       1                                                       0.0000        0.01%         0.0100        48207.102    
  OK                                1                                                       0.0000        100.00%       0.0100        48207.102    
 13.35.198.11                       1                                                       0.0000        0.01%         0.0100        48207.059    
  OK                                1                                                       0.0000        100.00%       0.0100        48207.059    
 13.35.198.105                      1                                                       0.0000        0.01%         0.0100        393807.277   
  OK                                1                                                       0.0000        100.00%       0.0100        393807.277   
 13.35.198.104                      1                                                       0.0000        0.01%         0.0100        393807.318   
  OK                                1                                                       0.0000        100.00%       0.0100        393807.318   
 13.227.209.71                      1                                                       0.0000        0.01%         0.0100        568091.716   
  OK                                1                                                       0.0000        100.00%       0.0100        568091.716   
 13.227.209.151                     1                                                       0.0000        0.01%         0.0100        567787.646   
  OK                                1                                                       0.0000        100.00%       0.0100        567787.646   
 13.224.89.169                      1                                                       0.0000        0.01%         0.0100        567482.319   
  OK                                1                                                       0.0000        100.00%       0.0100        567482.319   
 104.82.137.153                     1                                                       0.0000        0.01%         0.0100        603715.060   
  OK                                1                                                       0.0000        100.00%       0.0100        603715.060   

---------------------------------------------------------------------------------------------------------------------------------------------------
